<?xml version="1.0" encoding="UTF-8"?>
<!DOCTYPE svg  PUBLIC '-//W3C//DTD SVG 1.1//EN'  'http://www.w3.org/2000/svg' [
	<!ENTITY ns_extend "http://ns.adobe.com/Extensibility/1.0/">
	<!ENTITY ns_ai "http://ns.adobe.com/AdobeIllustrator/10.0/">
	<!ENTITY ns_graphs "http://ns.adobe.com/Graphs/1.0/">
	<!ENTITY ns_vars "http://ns.adobe.com/Variables/1.0/">
	<!ENTITY ns_imrep "http://ns.adobe.com/ImageReplacement/1.0/">
	<!ENTITY ns_sfw "http://ns.adobe.com/SaveForWeb/1.0/">
	<!ENTITY ns_custom "http://ns.adobe.com/GenericCustomNamespace/1.0/">
	<!ENTITY ns_adobe_xpath "http://ns.adobe.com/XPath/1.0/">
]>
<svg enable-background="new 0 0 100 125" version="1.1" viewBox="0 0 90 90" xml:space="preserve" xmlns="http://www.w3.org/2000/svg">
<switch>
	<foreignObject width="1" height="1" requiredExtensions="http://ns.adobe.com/AdobeIllustrator/10.0/">
		
	</foreignObject>
	<g>
		
			<path d="m30.56 40.54 11.68 11.68 2.19-2.19-11.7-11.68c-0.45-0.45 0-2.04 0-2.04l-7.92-6.81-3.14 3.14 6.83 7.9c0.01 0 1.67-0.38 2.06 0z"/>
			<path d="m59.04 59.15-7.7 7.7 16.75 16.72c1.35 1.36 3.55 1.36 4.9 0.01l2.74-2.74c1.36-1.35 1.36-3.55 0.01-4.9l-0.01-0.01-16.69-16.78z"/>
			<path d="m69.86 43.06c-1.83 1.83-4.8 1.83-6.63 0s-1.83-4.8 0-6.63l7.34-7.27c-1.63-0.76-3.4-1.16-5.2-1.19-7.17 0.06-12.97 5.86-13.03 13.03 0.03 1.8 0.44 3.57 1.19 5.2l-30.51 30.45c-1.83 1.83-1.83 4.8 0 6.63s4.8 1.83 6.63 0l30.5-30.53c1.63 0.76 3.4 1.16 5.2 1.19 7.17-0.06 12.97-5.86 13.03-13.03-0.05-1.8-0.48-3.57-1.25-5.2l-7.27 7.35z"/>
		
	</g>
</switch>

</svg>
